6-Jul-2004 19:46|80.126.250.230|slu.xs4all.nl|Mozilla/4.0 (compatible; MSIE 6.0; Windows NT 5.1; .NET CLR 1.1.4322)
6-Jul-2004 21:03|213.84.47.228|djasp.xs4all.nl|Mozilla/4.0 (compatible; MSIE 6.0; Windows NT 5.1)
6-Jul-2004 22:03|82.157.166.116|c529da674.cable.wanadoo.nl|Mozilla/4.0 (compatible; MSIE 6.0; Windows NT 5.1; .NET CLR 1.1.4322)
6-Jul-2004 23:03|81.58.224.169|dslam169-224-58-81.adsl.zonnet.nl|Mozilla/4.0 (compatible; MSIE 6.0; Windows NT 5.1)
7-Jul-2004 01:53|212.127.237.122|qn-212-127-237-122.quicknet.nl|Mozilla/4.0 (compatible; MSIE 6.0; Windows NT 5.1; .NET CLR 1.1.4322)
7-Jul-2004 11:10|194.151.7.60|194.151.7.60|Mozilla/4.0 (compatible; MSIE 6.0; Windows NT 5.0)
7-Jul-2004 12:42|194.151.165.132|194.151.165.132|Mozilla/4.0 (compatible; MSIE 6.0; Windows NT 5.1; Abrona; .NET CLR 1.1.4322)
7-Jul-2004 18:06|213.84.86.142|punkey.xs4all.nl|Mozilla/4.0 (compatible; MSIE 6.0; Windows NT 5.1; .NET CLR 1.1.4322)
7-Jul-2004 20:40|62.234.89.198|c3eea59c6.cable.wanadoo.nl|Mozilla/4.0 (compatible; MSIE 6.0; Windows NT 5.1)
7-Jul-2004 22:59|213.51.117.184|cc635849-a.deven1.ov.home.nl|Mozilla/4.0 (compatible; MSIE 6.0; Windows NT 5.1; .NET CLR 1.1.4322)
8-Jul-2004 00:09|81.244.18.52|52-18.244.81.adsl.skynet.be|Mozilla/4.0 (compatible; MSIE 6.0; Windows NT 5.1; Feedreader; .NET CLR 1.1.4322)
8-Jul-2004 10:57|62.131.164.39|ip3e83a427.speed.planet.nl|Mozilla/4.0 (compatible; MSIE 6.0; Windows NT 5.1; .NET CLR 1.1.4322)
8-Jul-2004 13:19|212.29.182.2|k2.infopact.nl|Mozilla/4.0 (compatible; MSIE 6.0; Windows NT 5.1)
8-Jul-2004 13:46|82.94.15.98|a82-94-15-98.adsl.xs4all.nl|Mozilla/4.0 (compatible; MSIE 5.5; Windows NT 4.0; T312461)
8-Jul-2004 20:13|81.69.219.213|bd-but-1bdd5.adsl.wanadoo.nl|Mozilla/4.0 (compatible; MSIE 6.0; Windows NT 5.1)
8-Jul-2004 21:37|83.118.36.145|adsl-dc-38691.adsl.wanadoo.nl|Mozilla/4.0 (compatible; MSIE 6.0; Windows 98; WRV)
8-Jul-2004 23:49|212.129.171.171|amf-kkp-2bab.mxs.adsl.euronet.nl|Mozilla/4.0 (compatible; MSIE 6.0; Windows NT 5.1)
9-Jul-2004 09:56|213.201.143.114|213.201.143.114|Mozilla/4.0 (compatible; MSIE 6.0; Windows NT 5.0)
9-Jul-2004 12:49|193.172.14.11|firewall.goudengids.nl|Mozilla/4.0 (compatible; MSIE 5.01; Windows NT 5.0; .NET CLR 1.0.3705)
9-Jul-2004 15:38|213.132.178.65|213-132-178-65.multikabel.nl|Mozilla/4.0 (compatible; MSIE 6.0; Windows NT 5.1; .NET CLR 1.1.4322)
9-Jul-2004 21:48|213.160.199.34|mailserv.ubf.nl|Mozilla/4.0 (compatible; MSIE 6.0; Windows NT 5.0)
10-Jul-2004 12:14|81.68.135.49|c51448731.cable.wanadoo.nl|Mozilla/5.0 (Windows; U; Windows NT 5.1; en-US; rv:1.7) Gecko/20040614 Firefox/0.9
10-Jul-2004 21:37|81.68.135.49|c51448731.cable.wanadoo.nl|Mozilla/5.0 (Windows; U; Windows NT 5.1; en-US; rv:1.7) Gecko/20040614 Firefox/0.9
11-Jul-2004 15:31|62.194.161.127|node-c-a17f.a2000.nl|Mozilla/5.0 (Windows; U; Windows NT 5.1; en-US; rv:1.7) Gecko/20040614 Firefox/0.8
11-Jul-2004 19:27|81.68.135.49|c51448731.cable.wanadoo.nl|Mozilla/5.0 (Windows; U; Windows NT 5.1; en-US; rv:1.7) Gecko/20040614 Firefox/0.9
11-Jul-2004 20:14|212.123.177.89|212-123-177-89-mx.xdsl.tiscali.nl|Mozilla/4.0 (compatible; MSIE 6.0; Windows NT 5.1; .NET CLR 1.1.4322)
11-Jul-2004 21:02|212.187.105.125|c105125.upc-c.chello.nl|Mozilla/4.0 (compatible; MSIE 6.0; Windows NT 5.0; .NET CLR 1.1.4322)
11-Jul-2004 22:17|81.68.135.49|c51448731.cable.wanadoo.nl|Mozilla/5.0 (Windows; U; Windows NT 5.1; en-US; rv:1.7) Gecko/20040614 Firefox/0.9
11-Jul-2004 23:17|62.194.49.39|node-c-3127.a2000.nl|Mozilla/5.0 (Windows; U; Windows NT 5.1; en-US; rv:1.7) Gecko/20040614 Firefox/0.8
12-Jul-2004 01:44|80.126.13.219|a80-126-13-219.adsl.xs4all.nl|Mozilla/5.0 (Macintosh; U; PPC Mac OS X; nl-nl) AppleWebKit/125.2 (KHTML, like Gecko) Safari/125.8
12-Jul-2004 09:22|212.153.251.134|212.153.251.134|Mozilla/4.0 (compatible; MSIE 6.0; Windows NT 5.1; .NET CLR 1.1.4322)
12-Jul-2004 14:47|82.136.244.180|82-136-244-180-mx.xdsl.tiscali.nl|Mozilla/4.0 (compatible; MSIE 6.0; Windows 98)
12-Jul-2004 19:51|213.84.230.189|guinness.xs4all.nl|Mozilla/4.0 (compatible; MSIE 6.0; Windows 98; Win 9x 4.90)
12-Jul-2004 20:03|81.68.135.49|c51448731.cable.wanadoo.nl|Mozilla/5.0 (Windows; U; Windows NT 5.1; en-US; rv:1.7) Gecko/20040614 Firefox/0.9
13-Jul-2004 09:13|194.109.165.46|datacon.xs4all.nl|Mozilla/4.0 (compatible; MSIE 6.0; Windows NT 5.1; .NET CLR 1.1.4322)
13-Jul-2004 10:43|81.68.135.49|c51448731.cable.wanadoo.nl|Mozilla/5.0 (Windows; U; Windows NT 5.1; en-US; rv:1.7) Gecko/20040614 Firefox/0.9
13-Jul-2004 12:52|81.68.135.49|c51448731.cable.wanadoo.nl|Mozilla/5.0 (Windows; U; Windows NT 5.1; en-US; rv:1.7) Gecko/20040614 Firefox/0.9
13-Jul-2004 13:05|213.84.242.2|orh.xs4all.nl|Mozilla/4.0 (compatible; MSIE 6.0; Windows NT 5.0; .NET CLR 1.0.3705; .NET CLR 1.1.4322)
13-Jul-2004 13:59|213.73.148.250|qn-213-73-148-250.quicknet.nl|Mozilla/4.0 (compatible; MSIE 6.0; Windows 98)
13-Jul-2004 14:53|145.78.21.6|145.78.21.6|Mozilla/4.0 (compatible; MSIE 6.0; Windows NT 5.1)
13-Jul-2004 14:56|62.131.146.232|ip3e8392e8.speed.planet.nl|Mozilla/5.0 (Windows; U; Windows NT 5.1; en-US; rv:1.7) Gecko/20040707 Firefox/0.9.2
13-Jul-2004 15:29|212.204.130.236|cp104803-a.roose1.nb.home.nl|Mozilla/5.0 (Windows; U; Win98; en-US; rv:1.7) Gecko/20040707 Firefox/0.8
13-Jul-2004 15:57|83.116.202.234|adsl-dc-32cea.adsl.wanadoo.nl|Mozilla/5.0 (Windows; U; Windows NT 5.1; en-US; rv:1.7) Gecko/20040614 Firefox/0.8
13-Jul-2004 16:22|81.244.17.171|171-17.244.81.adsl.skynet.be|Mozilla/4.0 (compatible; MSIE 6.0; Windows NT 5.1; Feedreader; .NET CLR 1.1.4322)
13-Jul-2004 18:27|82.168.209.183|82-168-209-183-bbxl.xdsl.tiscali.nl|Mozilla/4.0 (compatible; MSIE 6.0; Windows NT 5.1)
13-Jul-2004 21:35|81.68.135.49|c51448731.cable.wanadoo.nl|Mozilla/5.0 (Windows; U; Windows NT 5.1; en-US; rv:1.7) Gecko/20040614 Firefox/0.9
13-Jul-2004 23:30|213.93.211.17|e211017.upc-e.chello.nl|Mozilla/4.0 (compatible; MSIE 6.0; Windows NT 5.1; .NET CLR 1.1.4322)
14-Jul-2004 02:50|66.94.16.33|m21105e42.tmodns.net|Doris/1.17 [en] (Symbian)
14-Jul-2004 09:33|81.68.135.49|c51448731.cable.wanadoo.nl|Mozilla/5.0 (Windows; U; Windows NT 5.1; en-US; rv:1.7) Gecko/20040614 Firefox/0.9
14-Jul-2004 12:03|80.201.246.213|213.246-201-80.adsl-fix.skynet.be|Opera/7.52 (Windows NT 5.1; U)  [en]
14-Jul-2004 13:47|194.151.80.114|194.151.80.114|Mozilla/4.0 (compatible; MSIE 6.0; Windows NT 5.0; TUCOWS)
14-Jul-2004 16:03|80.126.174.35|a80-126-174-35.adsl.xs4all.nl|Mozilla/4.0 (compatible; MSIE 6.0; Windows NT 5.0)
14-Jul-2004 16:31|193.79.173.3|193.79.173.3|Mozilla/4.0 (compatible; MSIE 6.0; Windows NT 5.1)
14-Jul-2004 16:46|81.68.135.49|c51448731.cable.wanadoo.nl|Mozilla/4.0 (compatible; MSIE 6.0; Windows NT 5.1; .NET CLR 1.1.4322)
14-Jul-2004 18:09|212.129.206.124|db-c-4e7c.mxs.adsl.euronet.nl|Mozilla/5.0 (Macintosh; U; PPC Mac OS X; nl-nl) AppleWebKit/125.2 (KHTML, like Gecko) Safari/125.8
14-Jul-2004 18:50|81.206.99.12|ip51ce630c.speed.planet.nl|Mozilla/4.0 (compatible; MSIE 6.0; Windows NT 5.1)
14-Jul-2004 19:40|81.68.135.49|c51448731.cable.wanadoo.nl|Mozilla/5.0 (Windows; U; Windows NT 5.1; en-US; rv:1.7) Gecko/20040614 Firefox/0.9
14-Jul-2004 23:41|62.163.123.104|a123104.upc-a.chello.nl|Mozilla/4.0 (compatible; MSIE 6.0; Windows NT 5.1; .NET CLR 1.1.4322)
15-Jul-2004 07:43|212.238.235.114|seconds.demon.nl|Mozilla/4.0 (compatible; MSIE 6.0; Windows NT 5.0)
15-Jul-2004 10:09|222.34.33.9|222.34.33.9|Mozilla/4.0 (compatible; MSIE 5.01; Windows 98)
15-Jul-2004 11:24|62.58.165.82|62.58.165.82|Mozilla/4.0 (compatible; MSIE 6.0; Windows NT 5.1)
15-Jul-2004 11:46|213.119.15.233|d5770fe9.kabel.telenet.be|Mozilla/5.0 (Windows; U; Windows NT 5.0; en-US; rv:1.7) Gecko/20040707 Firefox/0.8
15-Jul-2004 12:55|81.68.135.49|c51448731.cable.wanadoo.nl|Mozilla/5.0 (Windows; U; Windows NT 5.1; en-US; rv:1.7) Gecko/20040614 Firefox/0.9
15-Jul-2004 14:52|62.216.26.73|a62-216-26-73.adsl.cistron.nl|Mozilla/4.0 (compatible; MSIE 6.0; Windows NT 5.1)
15-Jul-2004 16:09|195.241.10.1|195-241-10-1-mx.xdsl.tiscali.nl|Mozilla/4.0 (compatible; MSIE 6.0; Windows NT 5.1)
15-Jul-2004 16:41|80.65.97.195|mail.introcom.nl|Mozilla/4.0 (compatible; MSIE 6.0; Windows NT 5.0)
15-Jul-2004 16:43|62.21.194.160|62.21.194.160|Googlebot/2.1
15-Jul-2004 17:04|81.68.135.49|c51448731.cable.wanadoo.nl|Mozilla/5.0 (Windows; U; Windows NT 5.1; en-US; rv:1.7) Gecko/20040614 Firefox/0.9
15-Jul-2004 18:31|213.84.43.173|110171.xs4all.nl|Mozilla/5.0 (Macintosh; U; PPC Mac OS X; nl-nl) AppleWebKit/85.7 (KHTML, like Gecko) Safari/85.7
15-Jul-2004 19:17|81.68.135.49|c51448731.cable.wanadoo.nl|Mozilla/5.0 (Windows; U; Windows NT 5.1; en-US; rv:1.7) Gecko/20040614 Firefox/0.9
15-Jul-2004 20:24|163.150.246.9|163.150.246.9|Mozilla/4.0 (compatible; MSIE 6.0; Windows NT 5.0)
15-Jul-2004 20:48|81.68.135.49|c51448731.cable.wanadoo.nl|Mozilla/5.0 (Windows; U; Windows NT 5.1; en-US; rv:1.7) Gecko/20040614 Firefox/0.9
15-Jul-2004 21:37|212.120.77.200|cc6788-a.assen1.dr.home.nl|Mozilla/4.0 (compatible; MSIE 6.0; Windows NT 5.1; AtHome033)
16-Jul-2004 10:19|62.108.12.243|node0cf3.a2000.nl|Mozilla/4.0 (compatible; MSIE 6.0; Windows NT 5.1; .NET CLR 1.0.3705)
16-Jul-2004 10:52|81.68.135.49|c51448731.cable.wanadoo.nl|Mozilla/5.0 (Windows; U; Windows NT 5.1; en-US; rv:1.7) Gecko/20040614 Firefox/0.9
16-Jul-2004 13:34|81.68.135.49|c51448731.cable.wanadoo.nl|Mozilla/5.0 (Windows; U; Windows NT 5.1; en-US; rv:1.7) Gecko/20040614 Firefox/0.9
16-Jul-2004 14:47|212.238.253.19|host-3.llsdsl.demon.nl|Mozilla/4.0 (compatible; MSIE 6.0; Windows NT 5.1)
16-Jul-2004 15:04|62.69.162.169|ipv6-router.ilse.nl|Mozilla/4.0 (compatible; MSIE 6.0; Windows NT 5.0)
16-Jul-2004 17:23|81.68.135.49|c51448731.cable.wanadoo.nl|Mozilla/5.0 (Windows; U; Windows NT 5.1; en-US; rv:1.7) Gecko/20040614 Firefox/0.9
16-Jul-2004 18:06|81.207.140.215|ip51cf8cd7.direct-adsl.nl|Mozilla/4.0 (compatible; MSIE 6.0; Windows NT 5.1)
16-Jul-2004 20:14|81.68.135.49|c51448731.cable.wanadoo.nl|Mozilla/5.0 (Windows; U; Windows NT 5.1; en-US; rv:1.7) Gecko/20040614 Firefox/0.9
16-Jul-2004 22:59|195.241.110.147|195-241-110-147-mx.xdsl.tiscali.nl|Mozilla/5.0 (Macintosh; U; PPC Mac OS X; nl-nl) AppleWebKit/125.2 (KHTML, like Gecko) Safari/125.8
16-Jul-2004 23:33|81.68.135.49|c51448731.cable.wanadoo.nl|Mozilla/5.0 (Windows; U; Windows NT 5.1; en-US; rv:1.7) Gecko/20040614 Firefox/0.9
17-Jul-2004 10:10|81.68.135.49|c51448731.cable.wanadoo.nl|Mozilla/5.0 (Windows; U; Windows NT 5.1; en-US; rv:1.7) Gecko/20040614 Firefox/0.9
17-Jul-2004 10:56|81.11.158.196|u81-11-158-196.adsl.scarlet.be|Mozilla/4.0 (compatible; MSIE 6.0; Windows NT 5.1) Opera 7.23  [en]
17-Jul-2004 11:36|80.126.249.222|a80-126-249-222.adsl.xs4all.nl|Mozilla/4.0 (compatible; MSIE 6.0; Windows NT 5.0)
17-Jul-2004 14:08|82.75.235.99|cc536512-a.hooge1.gr.home.nl|Mozilla/4.0 (compatible; MSIE 6.0; Windows NT 5.1)
17-Jul-2004 14:25|195.121.71.150|ipc3794796.dial.planet.nl|Mozilla/4.0 (compatible; MSIE 6.0; Windows NT 5.1; .NET CLR 1.1.4322)
17-Jul-2004 17:20|82.72.114.240|cp556082-a.mill1.nb.home.nl|Mozilla/4.0 (compatible; MSIE 6.0; Windows NT 5.1; .NET CLR 1.1.4322)
17-Jul-2004 19:09|81.68.135.49|c51448731.cable.wanadoo.nl|Mozilla/5.0 (Windows; U; Windows NT 5.1; en-US; rv:1.7) Gecko/20040614 Firefox/0.9
17-Jul-2004 23:02|81.68.135.49|c51448731.cable.wanadoo.nl|Mozilla/5.0 (Windows; U; Windows NT 5.1; en-US; rv:1.7) Gecko/20040614 Firefox/0.9
17-Jul-2004 23:02|81.68.135.49|c51448731.cable.wanadoo.nl|Mozilla/5.0 (Windows; U; Windows NT 5.1; en-US; rv:1.7) Gecko/20040614 Firefox/0.9
17-Jul-2004 23:02|81.68.135.49|c51448731.cable.wanadoo.nl|Mozilla/5.0 (Windows; U; Windows NT 5.1; en-US; rv:1.7) Gecko/20040614 Firefox/0.9
17-Jul-2004 23:03|81.68.135.49|c51448731.cable.wanadoo.nl|Mozilla/5.0 (Windows; U; Windows NT 5.1; en-US; rv:1.7) Gecko/20040614 Firefox/0.9
18-Jul-2004 01:17|213.84.180.23|steginga.xs4all.nl|Mozilla/4.0 (compatible; MSIE 6.0; Windows NT 5.1)
18-Jul-2004 11:07|81.68.135.49|c51448731.cable.wanadoo.nl|Mozilla/5.0 (Windows; U; Windows NT 5.1; en-US; rv:1.7) Gecko/20040614 Firefox/0.9
18-Jul-2004 14:18|81.68.135.49|c51448731.cable.wanadoo.nl|Mozilla/5.0 (Windows; U; Windows NT 5.1; en-US; rv:1.7) Gecko/20040614 Firefox/0.9
18-Jul-2004 14:24|81.204.97.91|ip51cc615b.speed.planet.nl|Mozilla/4.0 (compatible; MSIE 6.0; Windows NT 5.1; .NET CLR 1.1.4322; .NET CLR 1.0.3705)
18-Jul-2004 15:50|62.100.61.8|h6210061008.dsl.speedlinq.nl|Mozilla/4.0 (compatible; MSIE 6.0; Windows NT 5.1; iOpus-I-M; .NET CLR 1.1.4322)
18-Jul-2004 19:12|81.68.135.49|c51448731.cable.wanadoo.nl|Mozilla/5.0 (Windows; U; Windows NT 5.1; en-US; rv:1.7) Gecko/20040614 Firefox/0.9
18-Jul-2004 23:01|62.194.161.127|node-c-a17f.a2000.nl|Mozilla/5.0 (Windows; U; Windows NT 5.1; en-US; rv:1.7) Gecko/20040614 Firefox/0.8
18-Jul-2004 23:09|217.123.147.254|cp537360-a.dbsch1.nb.home.nl|Mozilla/4.0 (compatible; MSIE 6.0; Windows NT 5.1; MSOCD; AtHome033; .NET CLR 1.0.3705; .NET CLR 1.1.4322)
19-Jul-2004 10:59|81.68.135.49|c51448731.cable.wanadoo.nl|Mozilla/5.0 (Windows; U; Windows NT 5.1; en-US; rv:1.7) Gecko/20040614 Firefox/0.9
19-Jul-2004 14:50|82.146.104.57|082-146-104-057.dyn.adsl.xs4all.be|Mozilla/4.0 (compatible; MSIE 6.0; Windows NT 5.1; .NET CLR 1.1.4322)
19-Jul-2004 16:02|217.120.19.233|cp12561-a.roose1.nb.home.nl|Mozilla/4.0 (compatible; MSIE 6.0; Windows NT 5.1; .NET CLR 1.0.3705; .NET CLR 1.1.4322)
19-Jul-2004 20:33|81.68.135.49|c51448731.cable.wanadoo.nl|Mozilla/5.0 (Windows; U; Windows NT 5.1; en-US; rv:1.7) Gecko/20040614 Firefox/0.9
19-Jul-2004 21:40|62.163.163.105|a163105.upc-a.chello.nl|Mozilla/4.0 (compatible; MSIE 6.0; Windows NT 5.1; Hewlett-Packard; .NET CLR 1.0.3705; .NET CLR 1.1.4322)
20-Jul-2004 10:25|81.68.135.49|c51448731.cable.wanadoo.nl|Mozilla/5.0 (Windows; U; Windows NT 5.1; en-US; rv:1.7) Gecko/20040614 Firefox/0.9
20-Jul-2004 17:20|81.68.135.49|c51448731.cable.wanadoo.nl|Mozilla/5.0 (Windows; U; Windows NT 5.1; en-US; rv:1.7) Gecko/20040614 Firefox/0.9
20-Jul-2004 19:56|213.84.124.185|213-84-124-185.adsl.xs4all.nl|Mozilla/4.0 (compatible; MSIE 6.0; Windows NT 5.1; .NET CLR 1.1.4322)
20-Jul-2004 21:45|81.68.135.49|c51448731.cable.wanadoo.nl|Mozilla/5.0 (Windows; U; Windows NT 5.1; en-US; rv:1.7) Gecko/20040614 Firefox/0.9
20-Jul-2004 22:51|213.10.203.62|ipd50acb3e.speed.planet.nl|Mozilla/4.0 (compatible; MSIE 6.0; Windows NT 5.1; .NET CLR 1.1.4322)
21-Jul-2004 11:01|81.68.135.49|c51448731.cable.wanadoo.nl|Mozilla/5.0 (Windows; U; Windows NT 5.1; en-US; rv:1.7) Gecko/20040614 Firefox/0.9
21-Jul-2004 11:10|62.21.239.125|062-021-239-125.adsl-econ.pn.nl|Mozilla/4.0 (compatible; MSIE 6.0; Windows NT 5.1)
21-Jul-2004 11:18|213.84.43.173|110171.xs4all.nl|Mozilla/5.0 (Macintosh; U; PPC Mac OS X; nl-nl) AppleWebKit/85.7 (KHTML, like Gecko) Safari/85.7
21-Jul-2004 11:51|80.61.182.131|ip503db683.speed.planet.nl|Mozilla/4.0 (compatible; MSIE 6.0; Windows NT 5.1; FTDv3 Browser; .NET CLR 1.1.4322)
21-Jul-2004 14:24|81.68.135.49|81.68.135.49|Mozilla/5.0 (Windows; U; Windows NT 5.1; en-US; rv:1.7) Gecko/20040614 Firefox/0.9
21-Jul-2004 21:09|81.68.135.49|81.68.135.49|Mozilla/5.0 (Windows; U; Windows NT 5.1; en-US; rv:1.7) Gecko/20040614 Firefox/0.9
21-Jul-2004 21:51|213.84.213.226|213-84-213-226.adsl.xs4all.nl|Mozilla/5.0 (Windows; U; Windows NT 5.1; en-US; rv:1.7) Gecko/20040614 Firefox/0.8
22-Jul-2004 00:19|213.17.81.73|213.17.81.73|Mozilla/5.0 (Windows; U; Windows NT 5.1; en-US; rv:1.7) Gecko/20040614 Firefox/0.9
22-Jul-2004 10:58|81.68.135.49|c51448731.cable.wanadoo.nl|Mozilla/5.0 (Windows; U; Windows NT 5.1; en-US; rv:1.7) Gecko/20040614 Firefox/0.9
22-Jul-2004 11:40|62.177.191.174|62-177-191-174.bbeyond.nl|Mozilla/4.0 (compatible; MSIE 6.0; Windows NT 5.1; .NET CLR 1.1.4322)
22-Jul-2004 14:15|24.132.84.170|node154aa.a2000.nl|Mozilla/4.0 (compatible; MSIE 5.0; Mac_PowerPC)
22-Jul-2004 17:35|213.119.139.24|d5778b18.kabel.telenet.be|Mozilla/5.0 (X11; U; Linux i686; en-US; rv:1.7) Gecko/20040626 Firefox/0.9.1
22-Jul-2004 21:56|81.68.135.49|c51448731.cable.wanadoo.nl|Mozilla/5.0 (Windows; U; Windows NT 5.1; en-US; rv:1.7) Gecko/20040614 Firefox/0.9
23-Jul-2004 10:37|62.58.165.82|62.58.165.82|Mozilla/4.0 (compatible; MSIE 6.0; Windows NT 5.1)
23-Jul-2004 11:56|213.93.164.23|e164023.upc-e.chello.nl|Mozilla/4.0 (compatible; MSIE 6.0; Windows NT 5.0)
23-Jul-2004 13:50|199.91.36.254|proxy.ftw.medcity.net|Mozilla/4.0 (compatible; MSIE 6.0; Windows NT 5.0)
23-Jul-2004 16:09|194.109.231.54|promptus.xs4all.nl|Mozilla/4.0 (compatible; MSIE 6.0; Windows NT 5.1)
24-Jul-2004 19:36|81.68.135.49|c51448731.cable.wanadoo.nl|Mozilla/5.0 (Windows; U; Windows NT 5.1; en-US; rv:1.7) Gecko/20040614 Firefox/0.9
24-Jul-2004 23:11|194.109.197.47|kostunrix.xs4all.nl|Mozilla/4.0 (compatible; MSIE 6.0; Windows 98)
25-Jul-2004 12:52|81.68.135.49|81.68.135.49|Mozilla/5.0 (Windows; U; Windows NT 5.1; en-US; rv:1.7) Gecko/20040614 Firefox/0.9
25-Jul-2004 21:38|195.64.89.201|cust.89.201.adsl.cistron.nl|Mozilla/5.0 (Windows; U; Windows NT 5.1; en-US; rv:1.7) Gecko/20040614 Firefox/0.9
25-Jul-2004 22:52|62.21.215.157|62.21.215.157|Mozilla/4.0 (compatible; MSIE 5.0; Windows 98; DigExt)
25-Jul-2004 23:41|82.156.171.208|c529cabd0.cable.wanadoo.nl|Mozilla/4.0 (compatible; MSIE 6.0; Windows NT 5.1)
26-Jul-2004 01:45|83.118.55.90|adsl-dc-3995a.adsl.wanadoo.nl|Googlebot/2.1 (+http://www.googlebot.com/bot.html; MSIE; Windows; .NET CLR 1.1.4322)
26-Jul-2004 09:54|62.194.161.127|node-c-a17f.a2000.nl|Mozilla/5.0 (Windows; U; Windows NT 5.1; en-US; rv:1.7) Gecko/20040707 Firefox/0.8
26-Jul-2004 11:10|81.68.135.49|81.68.135.49|Mozilla/5.0 (Windows; U; Windows NT 5.1; en-US; rv:1.7) Gecko/20040614 Firefox/0.9
26-Jul-2004 13:15|210.210.71.130|210-210-71-130.lan.sify.net|Mozilla/4.0 (compatible; MSIE 5.5; Windows NT 5.0)
26-Jul-2004 14:28|192.168.48.5|192.168.48.5|Mozilla/4.0 (compatible; MSIE 6.0; Windows NT 5.0)
26-Jul-2004 15:42|80.61.6.25|ip503d0619.speed.planet.nl|Mozilla/4.0 (compatible; MSIE 6.0; Windows NT 5.1; .NET CLR 1.0.3705)
26-Jul-2004 16:19|81.207.93.17|ip51cf5d11.direct-adsl.nl|Mozilla/4.0 (compatible; MSIE 6.0; Windows NT 5.1; .NET CLR 1.1.4322)
27-Jul-2004 09:21|194.158.48.82|194.158.48.82|Mozilla/4.0 (compatible; MSIE 6.0; Windows NT 5.0; .NET CLR 1.1.4322)
27-Jul-2004 11:04|81.68.135.49|c51448731.cable.wanadoo.nl|Mozilla/5.0 (Windows; U; Windows NT 5.1; en-US; rv:1.7) Gecko/20040614 Firefox/0.9
27-Jul-2004 11:41|16.8.67.83|zukprxpro03.europe.hp.net|Mozilla/4.0 (compatible; MSIE 6.0; Windows NT 5.0; Hewlett-Packard; .NET CLR 1.0.3705; .NET CLR 1.1.4322)
27-Jul-2004 12:50|155.137.0.9|155.137.0.9|Mozilla/4.0 (compatible; MSIE 6.0; Windows NT 5.0)
27-Jul-2004 13:14|81.68.135.49|c51448731.cable.wanadoo.nl|Mozilla/5.0 (Windows; U; Windows NT 5.1; en-US; rv:1.7) Gecko/20040614 Firefox/0.9
27-Jul-2004 16:48|62.58.193.244|62.58.193.244|Mozilla/4.0 (compatible; MSIE 6.0; Windows NT 5.1; .NET CLR 1.1.4322)
27-Jul-2004 22:12|81.68.135.49|c51448731.cable.wanadoo.nl|Mozilla/5.0 (Windows; U; Windows NT 5.1; en-US; rv:1.7) Gecko/20040614 Firefox/0.9
28-Jul-2004 10:17|212.238.155.79|relski.demon.nl|Mozilla/4.0 (compatible; MSIE 6.0; Windows NT 5.1)
28-Jul-2004 10:38|81.68.135.49|c51448731.cable.wanadoo.nl|Mozilla/5.0 (Windows; U; Windows NT 5.1; en-US; rv:1.7) Gecko/20040614 Firefox/0.9
28-Jul-2004 12:27|80.60.64.147|ip503c4093.speed.planet.nl|Mozilla/4.0 (compatible; MSIE 6.0; Windows NT 5.1)
28-Jul-2004 12:59|62.251.14.82|fia82-14.dsl.hccnet.nl|Mozilla/4.0 (compatible; MSIE 6.0; Windows NT 5.1; .NET CLR 1.1.4322)
28-Jul-2004 13:06|80.127.3.87|a80-127-3-87.adsl.xs4all.nl|Mozilla/5.0 (Windows; U; Win98; en-US; rv:1.6) Gecko/20040113
28-Jul-2004 13:31|81.68.135.49|c51448731.cable.wanadoo.nl|Mozilla/5.0 (Windows; U; Windows NT 5.1; en-US; rv:1.7) Gecko/20040614 Firefox/0.9
28-Jul-2004 14:49|10.67.0.36|10.67.0.36|Mozilla/4.0 (compatible; MSIE 6.0; Windows NT 5.0; .NET CLR 1.1.4322)
28-Jul-2004 16:23|81.68.135.49|c51448731.cable.wanadoo.nl|Mozilla/5.0 (Windows; U; Windows NT 5.1; en-US; rv:1.7) Gecko/20040614 Firefox/0.9
29-Jul-2004 10:16|81.68.135.49|c51448731.cable.wanadoo.nl|Mozilla/5.0 (Windows; U; Windows NT 5.1; en-US; rv:1.7) Gecko/20040614 Firefox/0.9
29-Jul-2004 11:41|130.89.64.49|ctwboonb002.ctw.utwente.nl|Mozilla/4.0 (compatible; MSIE 6.0; Windows NT 5.1)
29-Jul-2004 16:20|81.68.135.49|c51448731.cable.wanadoo.nl|Mozilla/5.0 (Windows; U; Windows NT 5.1; en-US; rv:1.7) Gecko/20040614 Firefox/0.9
29-Jul-2004 19:48|81.68.135.49|c51448731.cable.wanadoo.nl|Mozilla/5.0 (Windows; U; Windows NT 5.1; en-US; rv:1.7) Gecko/20040614 Firefox/0.9
30-Jul-2004 08:18|81.68.135.49|c51448731.cable.wanadoo.nl|Mozilla/5.0 (Windows; U; Windows NT 5.1; en-US; rv:1.7) Gecko/20040614 Firefox/0.9
30-Jul-2004 08:22|213.84.235.238|webkast.xs4all.nl|Mozilla/4.0 (compatible; MSIE 6.0; Windows NT 5.0)
30-Jul-2004 11:25|80.126.2.165|plus-hoogeveen.xs4all.nl|Mozilla/5.0 (Windows; U; Windows NT 5.1; en-US; rv:1.6) Gecko/20040206 Firefox/0.8
30-Jul-2004 11:25|81.68.135.49|c51448731.cable.wanadoo.nl|Mozilla/5.0 (Windows; U; Windows NT 5.1; en-US; rv:1.7) Gecko/20040614 Firefox/0.9
30-Jul-2004 16:40|62.59.36.79|unlabelled-79-36-59-62.versatel.net|Mozilla/4.0 (compatible; MSIE 6.0; Windows NT 5.1)
30-Jul-2004 20:30|81.68.135.49|c51448731.cable.wanadoo.nl|Mozilla/5.0 (Windows; U; Windows NT 5.1; en-US; rv:1.7) Gecko/20040614 Firefox/0.9
31-Jul-2004 22:35|213.84.213.226|213-84-213-226.adsl.xs4all.nl|Mozilla/5.0 (Windows; U; Windows NT 5.1; en-US; rv:1.7) Gecko/20040614 Firefox/0.8
1-Aug-2004 10:55|81.68.135.49|c51448731.cable.wanadoo.nl|Mozilla/5.0 (Windows; U; Windows NT 5.1; en-US; rv:1.7) Gecko/20040614 Firefox/0.9
1-Aug-2004 13:20|82.72.238.247|cp48330-a.tilbu1.nb.home.nl|Mozilla/4.0 (compatible; MSIE 6.0; Windows NT 5.1; .NET CLR 1.0.3705; .NET CLR 1.1.4322)
1-Aug-2004 13:22|81.58.224.169|dslam169-224-58-81.adsl.zonnet.nl|Mozilla/4.0 (compatible; MSIE 6.0; Windows NT 5.1; .NET CLR 1.1.4322)
1-Aug-2004 15:25|81.68.135.49|c51448731.cable.wanadoo.nl|Mozilla/5.0 (Windows; U; Windows NT 5.1; en-US; rv:1.7) Gecko/20040614 Firefox/0.9
1-Aug-2004 17:20|62.234.21.156|c3eea159c.cable.wanadoo.nl|Mozilla/5.0 (Windows; U; Windows NT 5.0; en-US; rv:1.6) Gecko/20040206 Firefox/0.8 StumbleUpon/1.994
1-Aug-2004 17:48|83.134.126.195|83-134-126-195.leuven.goplus.fastdsl.tiscali.be|Mozilla/4.0 (compatible; MSIE 6.0; Windows NT 5.1)
1-Aug-2004 20:19|81.70.143.51|dc51468f33.adsl.wanadoo.nl|Mozilla/4.0 (compatible; MSIE 6.0; Windows NT 5.1; .NET CLR 1.1.4322)
1-Aug-2004 21:45|62.166.178.31|dslam31-178-166-62.adsl.zonnet.nl|Mozilla/5.0 (Macintosh; U; PPC Mac OS X; nl-nl) AppleWebKit/124 (KHTML, like Gecko) Safari/125
1-Aug-2004 22:41|81.204.88.3|ip51cc5803.adsl-surfen.hetnet.nl|Mozilla/4.0 (compatible; MSIE 6.0; Windows NT 5.1)
3-Aug-2004 09:30|81.58.242.90|dslam90-242-58-81.dyndsl.zonnet.nl|Mozilla/4.0 (compatible; MSIE 6.0; Windows NT 5.1)
3-Aug-2004 14:59|213.84.199.228|213-84-199-228.adsl.xs4all.nl|Mozilla/5.0 (Macintosh; U; PPC Mac OS X; en) AppleWebKit/125.2 (KHTML, like Gecko) Safari/125.8
3-Aug-2004 19:11|83.82.128.92|5352805c.cable.casema.nl|Mozilla/4.0 (compatible; MSIE 6.0; Windows NT 5.1)
3-Aug-2004 23:19|62.194.161.127|node-c-a17f.a2000.nl|Mozilla/5.0 (Windows; U; Windows NT 5.1; en-US; rv:1.7) Gecko/20040707 Firefox/0.8
4-Aug-2004 18:50|202.83.35.210|202.83.35.210|Mozilla/4.0 (compatible; MSIE 5.01; Windows 98)
4-Aug-2004 19:35|82.157.233.240|c529de9f0.cable.wanadoo.nl|Mozilla/4.0 (compatible; MSIE 6.0; Windows NT 5.1)
4-Aug-2004 20:42|145.53.246.216|ip9135f6d8.speed.planet.nl|Mozilla/4.0 (compatible; MSIE 5.01; Windows 98)
5-Aug-2004 09:55|145.221.24.40|pa1.ing.nl|Mozilla/4.0 (compatible; MSIE 5.5; Windows NT 4.0; T312461)
