[ 20060130 - 12:47:21 (0.121) ] 201.38.218.22 -  - Send Mail to punkey@gmail.com from 'Phentermine'
[ 20060130 - 12:47:21 (0.133) ] 201.38.218.22 -  - comment from 'Phentermine' added.
[ 20060130 - 12:47:21 (0.145) ] 201.38.218.22 -  - Save entry 'The connection between GTD and Tai Chi' (6970)
[ 20060130 - 12:47:21 (0.147) ] 201.38.218.22 -  - Save entry index (96,index-standard-06900.php)
[ 20060130 - 12:47:22 (0.692) ] 201.38.218.22 -  - Write archive file: ../gtd/archives/archive_2005-m11.php
[ 20060130 - 12:47:22 (1.108) ] 201.38.218.22 -  - Write frontpage file: ../gtd/index.php
[ 20060130 - 12:59:26 (1.137) ] 213.84.172.170 - punkey - Write archive file: ../sundaymorningteanotes/archives/archive_2006-m01.php
[ 20060130 - 12:59:27 (1.349) ] 213.84.172.170 - punkey - Write archive file: ../sundaymorningteanotes/archives/archive_2006-m01.php
[ 20060130 - 12:59:39 (14.011) ] 213.84.172.170 - punkey - Write frontpage file: ../sundaymorningteanotes/index.php
[ 20060130 - 12:59:39 (14.012) ] 213.84.172.170 - punkey - Write RSS: ../sundaymorningteanotes/rssSMTN.xml
[ 20060130 - 12:59:39 (14.032) ] 213.84.172.170 - punkey - Write Atom: ../sundaymorningteanotes/atom.xml
[ 20060130 - 12:59:39 (14.338) ] 213.84.172.170 - punkey - Write archive file: ../gtd/archives/archive_2006-m01.php
[ 20060130 - 12:59:40 (14.801) ] 213.84.172.170 - punkey - Write frontpage file: ../gtd/index.php
[ 20060130 - 12:59:40 (14.802) ] 213.84.172.170 - punkey - Write RSS: ../gtd/RSSgtd.xml
[ 20060130 - 12:59:40 (14.802) ] 213.84.172.170 - punkey - Write Atom: ../gtd/atomgtd.xml
[ 20060130 - 12:59:40 (14.990) ] 213.84.172.170 - punkey - Write archive file: ../wanda/archives/archive_2006-m01.php
[ 20060130 - 12:59:44 (18.979) ] 213.84.172.170 - punkey - Write frontpage file: ../wanda/index.php
[ 20060130 - 12:59:44 (18.980) ] 213.84.172.170 - punkey - Write RSS: ../wanda/rss.xml
[ 20060130 - 12:59:44 (18.981) ] 213.84.172.170 - punkey - Write Atom: ../wanda/atom.xml
[ 20060130 - 12:59:52 (26.249) ] 213.84.172.170 - punkey - Write frontpage file: ../sundaymorningteanotes/index.php
[ 20060130 - 12:59:52 (26.250) ] 213.84.172.170 - punkey - Write RSS: ../sundaymorningteanotes/rssSMTN.xml
[ 20060130 - 12:59:52 (26.253) ] 213.84.172.170 - punkey - Write Atom: ../sundaymorningteanotes/atom.xml
[ 20060130 - 12:59:53 (26.573) ] 213.84.172.170 - punkey - Write archive file: ../gtd/archives/archive_2006-m01.php
[ 20060130 - 12:59:53 (27.055) ] 213.84.172.170 - punkey - Write frontpage file: ../gtd/index.php
[ 20060130 - 12:59:53 (27.056) ] 213.84.172.170 - punkey - Write RSS: ../gtd/RSSgtd.xml
[ 20060130 - 12:59:53 (27.057) ] 213.84.172.170 - punkey - Write Atom: ../gtd/atomgtd.xml
[ 20060130 - 12:59:53 (27.241) ] 213.84.172.170 - punkey - Write archive file: ../wanda/archives/archive_2006-m01.php
[ 20060130 - 12:59:56 (29.426) ] 213.84.172.170 - punkey - Write frontpage file: ../wanda/index.php
[ 20060130 - 12:59:56 (29.427) ] 213.84.172.170 - punkey - Write RSS: ../wanda/rss.xml
[ 20060130 - 12:59:56 (29.429) ] 213.84.172.170 - punkey - Write Atom: ../wanda/atom.xml
[ 20060130 - 13:04:19 (1.016) ] 212.55.52.2 -  - Send Mail to punkey@gmail.com from 'Dashka'
[ 20060130 - 13:04:19 (1.016) ] 212.55.52.2 -  - comment from 'Dashka' added.
[ 20060130 - 13:04:19 (1.067) ] 212.55.52.2 -  - Save entry 'Tadalist.com: Make listst and get stuff done!' (1639)
[ 20060130 - 13:04:19 (1.072) ] 212.55.52.2 -  - Save entry index (98,index-standard-01600.php)
[ 20060130 - 13:04:20 (1.934) ] 212.55.52.2 -  - Write archive file: ../gtd/archives/archive_2005-m01.php
[ 20060130 - 13:04:20 (2.354) ] 212.55.52.2 -  - Write frontpage file: ../gtd/index.php
[ 20060130 - 13:05:08 (0.427) ] 217.221.166.204 -  - Send Mail to punkey@gmail.com from 'Dashka'
[ 20060130 - 13:05:08 (0.427) ] 217.221.166.204 -  - comment from 'Dashka' added.
[ 20060130 - 13:05:08 (0.445) ] 217.221.166.204 -  - Save entry 'Backpack and GTD' (6971)
[ 20060130 - 13:05:08 (0.447) ] 217.221.166.204 -  - Save entry index (96,index-standard-06900.php)
[ 20060130 - 13:05:08 (0.686) ] 217.221.166.204 -  - Write archive file: ../gtd/archives/archive_2005-m11.php
[ 20060130 - 13:05:08 (0.891) ] 217.221.166.204 -  - Write frontpage file: ../gtd/index.php
[ 20060130 - 13:48:05 (0.780) ] 213.84.172.170 - punkey - Write archive file: ../sundaymorningteanotes/archives/archive_2006-m01.php
[ 20060130 - 13:48:11 (6.742) ] 213.84.172.170 - punkey - Write frontpage file: ../sundaymorningteanotes/index.php
[ 20060130 - 13:48:11 (6.743) ] 213.84.172.170 - punkey - Write RSS: ../sundaymorningteanotes/rssSMTN.xml
[ 20060130 - 13:48:11 (6.744) ] 213.84.172.170 - punkey - Write Atom: ../sundaymorningteanotes/atom.xml
[ 20060130 - 13:48:11 (6.980) ] 213.84.172.170 - punkey - Write archive file: ../gtd/archives/archive_2006-m01.php
[ 20060130 - 13:48:11 (7.336) ] 213.84.172.170 - punkey - Write frontpage file: ../gtd/index.php
[ 20060130 - 13:48:11 (7.337) ] 213.84.172.170 - punkey - Write RSS: ../gtd/RSSgtd.xml
[ 20060130 - 13:48:11 (7.337) ] 213.84.172.170 - punkey - Write Atom: ../gtd/atomgtd.xml
[ 20060130 - 13:48:12 (7.445) ] 213.84.172.170 - punkey - Write archive file: ../wanda/archives/archive_2006-m01.php
[ 20060130 - 13:48:15 (11.088) ] 213.84.172.170 - punkey - Write frontpage file: ../wanda/index.php
[ 20060130 - 13:48:15 (11.090) ] 213.84.172.170 - punkey - Write RSS: ../wanda/rss.xml
[ 20060130 - 13:48:15 (11.090) ] 213.84.172.170 - punkey - Write Atom: ../wanda/atom.xml
[ 20060130 - 14:51:28 (0.482) ] 65.214.39.72 -  - Send Mail to punkey@gmail.com from 'Et L Ordre Du Phoenix'
[ 20060130 - 14:51:28 (0.498) ] 65.214.39.72 -  - comment from 'Et L Ordre Du Phoenix' added.
[ 20060130 - 14:51:28 (0.508) ] 65.214.39.72 -  - Save entry 'Tadalist.com: Make listst and get stuff done!' (1639)
[ 20060130 - 14:51:28 (0.512) ] 65.214.39.72 -  - Save entry index (98,index-standard-01600.php)
[ 20060130 - 14:51:29 (1.388) ] 65.214.39.72 -  - Write archive file: ../gtd/archives/archive_2005-m01.php
[ 20060130 - 14:51:29 (1.728) ] 65.214.39.72 -  - Write frontpage file: ../gtd/index.php
[ 20060130 - 15:03:11 (0.399) ] 61.19.69.18 -  - Send Mail to punkey@gmail.com from 'Pawel'
[ 20060130 - 15:03:11 (0.400) ] 61.19.69.18 -  - comment from 'Pawel' added.
[ 20060130 - 15:03:11 (0.400) ] 61.19.69.18 -  - Save entry 'Tadalist.com: Make listst and get stuff done!' (1639)
[ 20060130 - 15:03:11 (0.404) ] 61.19.69.18 -  - Save entry index (98,index-standard-01600.php)
[ 20060130 - 15:03:12 (1.742) ] 61.19.69.18 -  - Write archive file: ../gtd/archives/archive_2005-m01.php
[ 20060130 - 15:03:13 (2.238) ] 61.19.69.18 -  - Write frontpage file: ../gtd/index.php
[ 20060130 - 18:19:38 (1.168) ] 201.19.153.238 -  - Send Mail to punkey@gmail.com from 'Phentermine'
[ 20060130 - 18:19:38 (1.193) ] 201.19.153.238 -  - comment from 'Phentermine' added.
[ 20060130 - 18:19:38 (1.209) ] 201.19.153.238 -  - Save entry 'The connection between GTD and Tai Chi' (6970)
[ 20060130 - 18:19:38 (1.212) ] 201.19.153.238 -  - Save entry index (96,index-standard-06900.php)
[ 20060130 - 18:19:39 (1.648) ] 201.19.153.238 -  - Write archive file: ../gtd/archives/archive_2005-m11.php
[ 20060130 - 18:19:39 (2.034) ] 201.19.153.238 -  - Write frontpage file: ../gtd/index.php
[ 20060130 - 19:33:22 (10.152) ] 200.59.35.10 -  - Send Mail to punkey@gmail.com from 'Order Phentermine'
[ 20060130 - 19:33:22 (10.164) ] 200.59.35.10 -  - comment from 'Order Phentermine' added.
[ 20060130 - 19:33:22 (10.179) ] 200.59.35.10 -  - Save entry 'The connection between GTD and Tai Chi' (6970)
[ 20060130 - 19:33:22 (10.183) ] 200.59.35.10 -  - Save entry index (96,index-standard-06900.php)
[ 20060130 - 19:33:23 (11.040) ] 200.59.35.10 -  - Write archive file: ../gtd/archives/archive_2005-m11.php
[ 20060130 - 19:33:23 (11.453) ] 200.59.35.10 -  - Write frontpage file: ../gtd/index.php
[ 20060130 - 19:41:44 (0.294) ] 125.240.113.194 -  - Send Mail to punkey@gmail.com from 'roulette'
[ 20060130 - 19:41:44 (0.295) ] 125.240.113.194 -  - comment from 'roulette' added.
[ 20060130 - 19:41:44 (0.296) ] 125.240.113.194 -  - Save entry 'The connection between GTD and Tai Chi' (6970)
[ 20060130 - 19:41:44 (0.299) ] 125.240.113.194 -  - Save entry index (96,index-standard-06900.php)
[ 20060130 - 19:41:45 (0.943) ] 125.240.113.194 -  - Write archive file: ../gtd/archives/archive_2005-m11.php
[ 20060130 - 19:41:46 (2.321) ] 125.240.113.194 -  - Write frontpage file: ../gtd/index.php
[ 20060130 - 19:54:41 (1.033) ] 82.92.60.180 - punkey - Write archive file: ../sundaymorningteanotes/archives/archive_2006-m01.php
[ 20060130 - 19:54:48 (7.761) ] 82.92.60.180 - punkey - Write frontpage file: ../sundaymorningteanotes/index.php
[ 20060130 - 19:54:48 (7.763) ] 82.92.60.180 - punkey - Write RSS: ../sundaymorningteanotes/rssSMTN.xml
[ 20060130 - 19:54:48 (7.768) ] 82.92.60.180 - punkey - Write Atom: ../sundaymorningteanotes/atom.xml
[ 20060130 - 19:54:48 (8.289) ] 82.92.60.180 - punkey - Write archive file: ../gtd/archives/archive_2006-m01.php
[ 20060130 - 19:54:49 (8.933) ] 82.92.60.180 - punkey - Write frontpage file: ../gtd/index.php
[ 20060130 - 19:54:49 (8.934) ] 82.92.60.180 - punkey - Write RSS: ../gtd/RSSgtd.xml
[ 20060130 - 19:54:49 (8.935) ] 82.92.60.180 - punkey - Write Atom: ../gtd/atomgtd.xml
[ 20060130 - 19:54:49 (9.203) ] 82.92.60.180 - punkey - Write archive file: ../wanda/archives/archive_2006-m01.php
[ 20060130 - 19:54:53 (13.229) ] 82.92.60.180 - punkey - Write frontpage file: ../wanda/index.php
[ 20060130 - 19:54:53 (13.245) ] 82.92.60.180 - punkey - Write RSS: ../wanda/rss.xml
[ 20060130 - 19:54:53 (13.246) ] 82.92.60.180 - punkey - Write Atom: ../wanda/atom.xml
[ 20060130 - 19:56:14 (0.684) ] 82.92.60.180 - punkey - Write archive file: ../sundaymorningteanotes/archives/archive_2006-m01.php
[ 20060130 - 19:56:24 (10.803) ] 82.92.60.180 - punkey - Write frontpage file: ../sundaymorningteanotes/index.php
[ 20060130 - 19:56:24 (10.804) ] 82.92.60.180 - punkey - Write RSS: ../sundaymorningteanotes/rssSMTN.xml
[ 20060130 - 19:56:24 (10.808) ] 82.92.60.180 - punkey - Write Atom: ../sundaymorningteanotes/atom.xml
[ 20060130 - 19:56:24 (11.152) ] 82.92.60.180 - punkey - Write archive file: ../gtd/archives/archive_2006-m01.php
[ 20060130 - 19:56:24 (11.545) ] 82.92.60.180 - punkey - Write frontpage file: ../gtd/index.php
[ 20060130 - 19:56:24 (11.547) ] 82.92.60.180 - punkey - Write RSS: ../gtd/RSSgtd.xml
[ 20060130 - 19:56:24 (11.548) ] 82.92.60.180 - punkey - Write Atom: ../gtd/atomgtd.xml
[ 20060130 - 19:56:25 (11.913) ] 82.92.60.180 - punkey - Write archive file: ../wanda/archives/archive_2006-m01.php
[ 20060130 - 19:56:28 (15.275) ] 82.92.60.180 - punkey - Write frontpage file: ../wanda/index.php
[ 20060130 - 19:56:28 (15.276) ] 82.92.60.180 - punkey - Write RSS: ../wanda/rss.xml
[ 20060130 - 19:56:28 (15.277) ] 82.92.60.180 - punkey - Write Atom: ../wanda/atom.xml
