[ 20060115 - 06:52:57 (0.431) ] 216.7.171.16 -  - Send Mail to punkey@gmail.com from 'Phentermine'
[ 20060115 - 06:52:57 (0.468) ] 216.7.171.16 -  - comment from 'Phentermine' added.
[ 20060115 - 06:52:57 (0.479) ] 216.7.171.16 -  - Save entry 'How to print the DIY planner in Europe' (6924)
[ 20060115 - 06:52:57 (0.481) ] 216.7.171.16 -  - Save entry index (93,index-standard-06900.php)
[ 20060115 - 06:52:57 (0.910) ] 216.7.171.16 -  - Write archive file: ../gtd/archives/archive_2005-m07.php
[ 20060115 - 06:52:57 (1.261) ] 216.7.171.16 -  - Write frontpage file: ../gtd/index.php
[ 20060115 - 18:10:50 (0.279) ] 82.92.60.180 -  - Send Mail to punkey@gmail.com from 'Frank'
[ 20060115 - 18:10:50 (0.290) ] 82.92.60.180 -  - comment from 'Frank' added.
[ 20060115 - 18:10:50 (0.307) ] 82.92.60.180 -  - Save entry '8 Steps to a succesfull and empty Inbox after your vacation' (6965)
[ 20060115 - 18:10:50 (0.310) ] 82.92.60.180 -  - Save entry index (93,index-standard-06900.php)
[ 20060115 - 18:10:51 (1.137) ] 82.92.60.180 -  - Write archive file: ../gtd/archives/archive_2005-m10.php
[ 20060115 - 18:10:51 (1.487) ] 82.92.60.180 -  - Write frontpage file: ../gtd/index.php
[ 20060115 - 18:15:33 (0.398) ] 82.92.60.180 - punkey - Write archive file: ../gtd/archives/archive_2006-m01.php
[ 20060115 - 18:15:33 (0.997) ] 82.92.60.180 - punkey - Write frontpage file: ../gtd/index.php
[ 20060115 - 18:15:33 (0.999) ] 82.92.60.180 - punkey - Write RSS: ../gtd/RSSgtd.xml
[ 20060115 - 18:15:33 (1.000) ] 82.92.60.180 - punkey - Write Atom: ../gtd/atomgtd.xml
[ 20060115 - 18:15:35 (2.683) ] 82.92.60.180 - punkey - Write archive file: ../sundaymorningteanotes/archives/archive_2006-m01.php
[ 20060115 - 18:15:51 (18.355) ] 82.92.60.180 - punkey - Write frontpage file: ../sundaymorningteanotes/index.php
[ 20060115 - 18:15:51 (18.356) ] 82.92.60.180 - punkey - Write RSS: ../sundaymorningteanotes/rssSMTN.xml
[ 20060115 - 18:15:51 (18.374) ] 82.92.60.180 - punkey - Write Atom: ../sundaymorningteanotes/atom.xml
[ 20060115 - 18:15:51 (18.566) ] 82.92.60.180 - punkey - Write archive file: ../wanda/archives/archive_2006-m01.php
[ 20060115 - 18:15:54 (21.635) ] 82.92.60.180 - punkey - Write frontpage file: ../wanda/index.php
[ 20060115 - 18:15:54 (21.636) ] 82.92.60.180 - punkey - Write RSS: ../wanda/rss.xml
[ 20060115 - 18:15:54 (21.644) ] 82.92.60.180 - punkey - Write Atom: ../wanda/atom.xml
[ 20060115 - 18:15:54 (22.040) ] 82.92.60.180 - punkey - Write archive file: ../gtd/archives/archive_2005-m12.php
[ 20060115 - 18:15:54 (22.104) ] 82.92.60.180 - punkey - Write archive file: ../sundaymorningteanotes/archives/archive_2005-m12.php
[ 20060115 - 18:15:55 (22.296) ] 82.92.60.180 - punkey - Write archive file: ../wanda/archives/archive_2005-m12.php
[ 20060115 - 18:16:37 (0.160) ] 82.92.60.180 - punkey - Write archive file: ../gtd/archives/archive_2006-m01.php
[ 20060115 - 18:16:37 (0.427) ] 82.92.60.180 - punkey - Write frontpage file: ../gtd/index.php
[ 20060115 - 18:16:37 (0.428) ] 82.92.60.180 - punkey - Write RSS: ../gtd/RSSgtd.xml
[ 20060115 - 18:16:37 (0.428) ] 82.92.60.180 - punkey - Write Atom: ../gtd/atomgtd.xml
[ 20060115 - 18:16:37 (0.552) ] 82.92.60.180 - punkey - Write archive file: ../sundaymorningteanotes/archives/archive_2006-m01.php
[ 20060115 - 18:16:48 (11.587) ] 82.92.60.180 - punkey - Write frontpage file: ../sundaymorningteanotes/index.php
[ 20060115 - 18:16:48 (11.589) ] 82.92.60.180 - punkey - Write RSS: ../sundaymorningteanotes/rssSMTN.xml
[ 20060115 - 18:16:48 (11.592) ] 82.92.60.180 - punkey - Write Atom: ../sundaymorningteanotes/atom.xml
[ 20060115 - 18:16:49 (11.748) ] 82.92.60.180 - punkey - Write archive file: ../wanda/archives/archive_2006-m01.php
[ 20060115 - 18:16:51 (14.336) ] 82.92.60.180 - punkey - Write frontpage file: ../wanda/index.php
[ 20060115 - 18:16:51 (14.338) ] 82.92.60.180 - punkey - Write RSS: ../wanda/rss.xml
[ 20060115 - 18:16:51 (14.339) ] 82.92.60.180 - punkey - Write Atom: ../wanda/atom.xml
[ 20060115 - 18:16:52 (14.864) ] 82.92.60.180 - punkey - Write archive file: ../gtd/archives/archive_2005-m12.php
[ 20060115 - 18:16:52 (15.029) ] 82.92.60.180 - punkey - Write archive file: ../sundaymorningteanotes/archives/archive_2005-m12.php
[ 20060115 - 18:16:52 (15.331) ] 82.92.60.180 - punkey - Write archive file: ../wanda/archives/archive_2005-m12.php
[ 20060115 - 20:23:31 (0.020) ] 216.7.171.16 -  - Blocked user from  tried to comment
